-- Merging decision tree log ---
manifest
ADDED from /home/mobulous06/Ravi Kant/Projects/TCS_Kisok29Oct18/solajetMobuloous-tcskiosk/app/src/main/AndroidManifest.xml:2:1-126:12
	package
		ADDED from /home/mobulous06/Ravi Kant/Projects/TCS_Kisok29Oct18/solajetMobuloous-tcskiosk/app/src/main/AndroidManifest.xml:4:5-44
		INJECTED from /home/mobulous06/Ravi Kant/Projects/TCS_Kisok29Oct18/solajetMobuloous-tcskiosk/app/src/main/AndroidManifest.xml
		INJECTED from /home/mobulous06/Ravi Kant/Projects/TCS_Kisok29Oct18/solajetMobuloous-tcskiosk/app/src/main/AndroidManifest.xml
	android:versionName
		INJECTED from /home/mobulous06/Ravi Kant/Projects/TCS_Kisok29Oct18/solajetMobuloous-tcskiosk/app/src/main/AndroidManifest.xml
		INJECTED from /home/mobulous06/Ravi Kant/Projects/TCS_Kisok29Oct18/solajetMobuloous-tcskiosk/app/src/main/AndroidManifest.xml
	xmlns:tools
		ADDED from /home/mobulous06/Ravi Kant/Projects/TCS_Kisok29Oct18/solajetMobuloous-tcskiosk/app/src/main/AndroidManifest.xml:3:5-51
	xmlns:android
		ADDED from /home/mobulous06/Ravi Kant/Projects/TCS_Kisok29Oct18/solajetMobuloous-tcskiosk/app/src/main/AndroidManifest.xml:2:11-69
	android:versionCode
		INJECTED from /home/mobulous06/Ravi Kant/Projects/TCS_Kisok29Oct18/solajetMobuloous-tcskiosk/app/src/main/AndroidManifest.xml
		INJECTED from /home/mobulous06/Ravi Kant/Projects/TCS_Kisok29Oct18/solajetMobuloous-tcskiosk/app/src/main/AndroidManifest.xml
uses-sdk
ADDED from /home/mobulous06/Ravi Kant/Projects/TCS_Kisok29Oct18/solajetMobuloous-tcskiosk/app/src/main/AndroidManifest.xml:6:5-8:67
MERGED from [com.jakewharton:butterknife:8.4.0] /home/mobulous06/.android/build-cache/70ca3d26f30f5ca9205989e0f6855582ded7b709/output/AndroidManifest.xml:5:5-43
MERGED from [de.hdodenhof:circleimageview:2.1.0] /home/mobulous06/.android/build-cache/f32c50f71a4d4f22d0e582acd41a172f6b1e2f63/output/AndroidManifest.xml:5:5-7:41
MERGED from [com.android.support:cardview-v7:26.1.0] /home/mobulous06/.android/build-cache/6fc4e01ae49d23662dcb825ee0d7c63d6165a7e3/output/AndroidManifest.xml:20:5-44
MERGED from [com.android.support:design:26.1.0] /home/mobulous06/.android/build-cache/95ec41ea0a505520583d63e77c32f38d675ca449/output/AndroidManifest.xml:21:5-23:62
MERGED from [com.android.support:recyclerview-v7:26.1.0] /home/mobulous06/.android/build-cache/60eee2a2dd5f2167b04da6cda8dd6d8bb583540c/output/AndroidManifest.xml:20:5-44
MERGED from [com.android.support:transition:26.1.0] /home/mobulous06/.android/build-cache/441eed217f33cf91a4963995686fc984af5ae632/output/AndroidManifest.xml:20:5-44
MERGED from [com.android.support.constraint:constraint-layout:1.0.2] /home/mobulous06/.android/build-cache/60caf51e6937e2db2f0ea41c4dab4675f1718b7d/output/AndroidManifest.xml:5:5-7:41
MERGED from [com.stripe:stripe-android:4.0.1] /home/mobulous06/.android/build-cache/3bb3003e546fc692b738148abdd660fea87921f6/output/AndroidManifest.xml:7:5-9:41
MERGED from [com.android.support:appcompat-v7:26.1.0] /home/mobulous06/.android/build-cache/41613d197db53b61d6a039f138925ac399cedb8b/output/AndroidManifest.xml:21:5-23:78
MERGED from [com.android.support:support-v4:26.1.0] /home/mobulous06/.android/build-cache/50dec26bc4bcb1c4339b84eea7b49bf12edc4023/output/AndroidManifest.xml:21:5-23:54
MERGED from [com.android.support:support-media-compat:26.1.0] /home/mobulous06/.android/build-cache/21a13ee6c0fe2ea0a2645231b1075c8d7a16c50c/output/AndroidManifest.xml:21:5-23:63
MERGED from [com.android.support:support-fragment:26.1.0] /home/mobulous06/.android/build-cache/76ebea1c0384a8a020736a5708e7015c298cde96/output/AndroidManifest.xml:21:5-23:60
MERGED from [com.android.support:support-core-utils:26.1.0] /home/mobulous06/.android/build-cache/760e335c58311fdce975e9ad34977101010584e9/output/AndroidManifest.xml:21:5-23:61
MERGED from [com.android.support:animated-vector-drawable:26.1.0] /home/mobulous06/.android/build-cache/42e447d6c067d27f15819c51d478efc4a51b28e4/output/AndroidManifest.xml:20:5-44
MERGED from [com.android.support:support-vector-drawable:26.1.0] /home/mobulous06/.android/build-cache/0ae68620d610fa8f9d703601388c635e49455216/output/AndroidManifest.xml:20:5-44
MERGED from [com.android.support:support-core-ui:26.1.0] /home/mobulous06/.android/build-cache/d078c409bab324de651ea22745e695ac0ed8fca4/output/AndroidManifest.xml:21:5-23:58
MERGED from [com.android.support:support-compat:26.1.0] /home/mobulous06/.android/build-cache/90295f4eee57aacaf5eb2bb27c953e876914c022/output/AndroidManifest.xml:21:5-23:58
MERGED from [android.arch.lifecycle:runtime:1.0.0] /home/mobulous06/.android/build-cache/e00b77d87444c06ab6863c60d1354207991fc913/output/AndroidManifest.xml:20:5-22:41
MERGED from [com.paypal.sdk:paypal-android-sdk:2.15.3] /home/mobulous06/.android/build-cache/941d7565edb678cd89c4167b537e29c352c051f6/output/AndroidManifest.xml:5:5-7:41
MERGED from [io.card:android-sdk:5.5.0] /home/mobulous06/.android/build-cache/2382ff9c4c14ae6ce83682b40e884f5d23a60fbc/output/AndroidManifest.xml:5:5-7:41
MERGED from [com.mcxiaoke.viewpagerindicator:library:2.4.1] /home/mobulous06/.android/build-cache/c82d6294ca1ae1778a49f7ed9abacd8f0c97b8e3/output/AndroidManifest.xml:3:5-72
	tools:overrideLibrary
		ADDED from /home/mobulous06/Ravi Kant/Projects/TCS_Kisok29Oct18/solajetMobuloous-tcskiosk/app/src/main/AndroidManifest.xml:8:9-64
	android:targetSdkVersion
		INJECTED from /home/mobulous06/Ravi Kant/Projects/TCS_Kisok29Oct18/solajetMobuloous-tcskiosk/app/src/main/AndroidManifest.xml
		INJECTED from /home/mobulous06/Ravi Kant/Projects/TCS_Kisok29Oct18/solajetMobuloous-tcskiosk/app/src/main/AndroidManifest.xml
	android:minSdkVersion
		ADDED from /home/mobulous06/Ravi Kant/Projects/TCS_Kisok29Oct18/solajetMobuloous-tcskiosk/app/src/main/AndroidManifest.xml:7:9-35
		INJECTED from /home/mobulous06/Ravi Kant/Projects/TCS_Kisok29Oct18/solajetMobuloous-tcskiosk/app/src/main/AndroidManifest.xml
		INJECTED from /home/mobulous06/Ravi Kant/Projects/TCS_Kisok29Oct18/solajetMobuloous-tcskiosk/app/src/main/AndroidManifest.xml
uses-permission#android.permission.BLUETOOTH
ADDED from /home/mobulous06/Ravi Kant/Projects/TCS_Kisok29Oct18/solajetMobuloous-tcskiosk/app/src/main/AndroidManifest.xml:10:5-68
	android:name
		ADDED from /home/mobulous06/Ravi Kant/Projects/TCS_Kisok29Oct18/solajetMobuloous-tcskiosk/app/src/main/AndroidManifest.xml:10:22-65
uses-permission#android.permission.BLUETOOTH_ADMIN
ADDED from /home/mobulous06/Ravi Kant/Projects/TCS_Kisok29Oct18/solajetMobuloous-tcskiosk/app/src/main/AndroidManifest.xml:11:5-74
	android:name
		ADDED from /home/mobulous06/Ravi Kant/Projects/TCS_Kisok29Oct18/solajetMobuloous-tcskiosk/app/src/main/AndroidManifest.xml:11:22-71
uses-permission#android.permission.INTERNET
ADDED from /home/mobulous06/Ravi Kant/Projects/TCS_Kisok29Oct18/solajetMobuloous-tcskiosk/app/src/main/AndroidManifest.xml:12:5-67
MERGED from [com.paypal.sdk:paypal-android-sdk:2.15.3] /home/mobulous06/.android/build-cache/941d7565edb678cd89c4167b537e29c352c051f6/output/AndroidManifest.xml:10:5-67
	android:name
		ADDED from /home/mobulous06/Ravi Kant/Projects/TCS_Kisok29Oct18/solajetMobuloous-tcskiosk/app/src/main/AndroidManifest.xml:12:22-64
uses-permission#android.permission.WRITE_EXTERNAL_STORAGE
ADDED from /home/mobulous06/Ravi Kant/Projects/TCS_Kisok29Oct18/solajetMobuloous-tcskiosk/app/src/main/AndroidManifest.xml:13:5-81
	android:name
		ADDED from /home/mobulous06/Ravi Kant/Projects/TCS_Kisok29Oct18/solajetMobuloous-tcskiosk/app/src/main/AndroidManifest.xml:13:22-78
uses-permission#android.permission.READ_EXTERNAL_STORAGE
ADDED from /home/mobulous06/Ravi Kant/Projects/TCS_Kisok29Oct18/solajetMobuloous-tcskiosk/app/src/main/AndroidManifest.xml:14:5-80
	android:name
		ADDED from /home/mobulous06/Ravi Kant/Projects/TCS_Kisok29Oct18/solajetMobuloous-tcskiosk/app/src/main/AndroidManifest.xml:14:22-77
uses-permission#android.permission.ACCESS_COARSE_LOCATION
ADDED from /home/mobulous06/Ravi Kant/Projects/TCS_Kisok29Oct18/solajetMobuloous-tcskiosk/app/src/main/AndroidManifest.xml:15:5-81
	android:name
		ADDED from /home/mobulous06/Ravi Kant/Projects/TCS_Kisok29Oct18/solajetMobuloous-tcskiosk/app/src/main/AndroidManifest.xml:15:22-78
uses-permission#android.permission.ACCESS_FINE_LOCATION
ADDED from /home/mobulous06/Ravi Kant/Projects/TCS_Kisok29Oct18/solajetMobuloous-tcskiosk/app/src/main/AndroidManifest.xml:16:5-79
	android:name
		ADDED from /home/mobulous06/Ravi Kant/Projects/TCS_Kisok29Oct18/solajetMobuloous-tcskiosk/app/src/main/AndroidManifest.xml:16:22-76
uses-permission#android.permission.RECEIVE_BOOT_COMPLETED
ADDED from /home/mobulous06/Ravi Kant/Projects/TCS_Kisok29Oct18/solajetMobuloous-tcskiosk/app/src/main/AndroidManifest.xml:17:5-81
	android:name
		ADDED from /home/mobulous06/Ravi Kant/Projects/TCS_Kisok29Oct18/solajetMobuloous-tcskiosk/app/src/main/AndroidManifest.xml:17:22-78
uses-permission#android.permission.ACCESS_NETWORK_STATE
ADDED from /home/mobulous06/Ravi Kant/Projects/TCS_Kisok29Oct18/solajetMobuloous-tcskiosk/app/src/main/AndroidManifest.xml:18:5-79
MERGED from [com.paypal.sdk:paypal-android-sdk:2.15.3] /home/mobulous06/.android/build-cache/941d7565edb678cd89c4167b537e29c352c051f6/output/AndroidManifest.xml:9:5-79
	android:name
		ADDED from /home/mobulous06/Ravi Kant/Projects/TCS_Kisok29Oct18/solajetMobuloous-tcskiosk/app/src/main/AndroidManifest.xml:18:22-76
uses-permission#android.permission.REORDER_TASKS
ADDED from /home/mobulous06/Ravi Kant/Projects/TCS_Kisok29Oct18/solajetMobuloous-tcskiosk/app/src/main/AndroidManifest.xml:19:5-72
	android:name
		ADDED from /home/mobulous06/Ravi Kant/Projects/TCS_Kisok29Oct18/solajetMobuloous-tcskiosk/app/src/main/AndroidManifest.xml:19:22-69
uses-permission#android.permission.SET_DEBUG_APP
ADDED from /home/mobulous06/Ravi Kant/Projects/TCS_Kisok29Oct18/solajetMobuloous-tcskiosk/app/src/main/AndroidManifest.xml:20:5-72
	android:name
		ADDED from /home/mobulous06/Ravi Kant/Projects/TCS_Kisok29Oct18/solajetMobuloous-tcskiosk/app/src/main/AndroidManifest.xml:20:22-69
uses-permission#android.permission.MANAGE_DEVICE_ADMINS
ADDED from /home/mobulous06/Ravi Kant/Projects/TCS_Kisok29Oct18/solajetMobuloous-tcskiosk/app/src/main/AndroidManifest.xml:21:5-79
	android:name
		ADDED from /home/mobulous06/Ravi Kant/Projects/TCS_Kisok29Oct18/solajetMobuloous-tcskiosk/app/src/main/AndroidManifest.xml:21:22-76
uses-permission#android.permission.READ_PHONE_STATE
ADDED from /home/mobulous06/Ravi Kant/Projects/TCS_Kisok29Oct18/solajetMobuloous-tcskiosk/app/src/main/AndroidManifest.xml:22:5-75
	android:name
		ADDED from /home/mobulous06/Ravi Kant/Projects/TCS_Kisok29Oct18/solajetMobuloous-tcskiosk/app/src/main/AndroidManifest.xml:22:22-72
application
ADDED from /home/mobulous06/Ravi Kant/Projects/TCS_Kisok29Oct18/solajetMobuloous-tcskiosk/app/src/main/AndroidManifest.xml:24:5-124:19
MERGED from [de.hdodenhof:circleimageview:2.1.0] /home/mobulous06/.android/build-cache/f32c50f71a4d4f22d0e582acd41a172f6b1e2f63/output/AndroidManifest.xml:9:5-20
MERGED from [com.android.support:cardview-v7:26.1.0] /home/mobulous06/.android/build-cache/6fc4e01ae49d23662dcb825ee0d7c63d6165a7e3/output/AndroidManifest.xml:22:5-26:19
MERGED from [com.android.support:design:26.1.0] /home/mobulous06/.android/build-cache/95ec41ea0a505520583d63e77c32f38d675ca449/output/AndroidManifest.xml:25:5-29:19
MERGED from [com.android.support:recyclerview-v7:26.1.0] /home/mobulous06/.android/build-cache/60eee2a2dd5f2167b04da6cda8dd6d8bb583540c/output/AndroidManifest.xml:22:5-26:19
MERGED from [com.android.support:transition:26.1.0] /home/mobulous06/.android/build-cache/441eed217f33cf91a4963995686fc984af5ae632/output/AndroidManifest.xml:22:5-26:19
MERGED from [com.android.support.constraint:constraint-layout:1.0.2] /home/mobulous06/.android/build-cache/60caf51e6937e2db2f0ea41c4dab4675f1718b7d/output/AndroidManifest.xml:9:5-20
MERGED from [com.android.support:appcompat-v7:26.1.0] /home/mobulous06/.android/build-cache/41613d197db53b61d6a039f138925ac399cedb8b/output/AndroidManifest.xml:25:5-29:19
MERGED from [com.android.support:support-v4:26.1.0] /home/mobulous06/.android/build-cache/50dec26bc4bcb1c4339b84eea7b49bf12edc4023/output/AndroidManifest.xml:25:5-29:19
MERGED from [com.android.support:support-media-compat:26.1.0] /home/mobulous06/.android/build-cache/21a13ee6c0fe2ea0a2645231b1075c8d7a16c50c/output/AndroidManifest.xml:25:5-29:19
MERGED from [com.android.support:support-fragment:26.1.0] /home/mobulous06/.android/build-cache/76ebea1c0384a8a020736a5708e7015c298cde96/output/AndroidManifest.xml:25:5-29:19
MERGED from [com.android.support:support-core-utils:26.1.0] /home/mobulous06/.android/build-cache/760e335c58311fdce975e9ad34977101010584e9/output/AndroidManifest.xml:25:5-29:19
MERGED from [com.android.support:animated-vector-drawable:26.1.0] /home/mobulous06/.android/build-cache/42e447d6c067d27f15819c51d478efc4a51b28e4/output/AndroidManifest.xml:22:5-26:19
MERGED from [com.android.support:support-vector-drawable:26.1.0] /home/mobulous06/.android/build-cache/0ae68620d610fa8f9d703601388c635e49455216/output/AndroidManifest.xml:22:5-26:19
MERGED from [com.android.support:support-core-ui:26.1.0] /home/mobulous06/.android/build-cache/d078c409bab324de651ea22745e695ac0ed8fca4/output/AndroidManifest.xml:25:5-29:19
MERGED from [com.android.support:support-compat:26.1.0] /home/mobulous06/.android/build-cache/90295f4eee57aacaf5eb2bb27c953e876914c022/output/AndroidManifest.xml:25:5-29:19
MERGED from [android.arch.lifecycle:runtime:1.0.0] /home/mobulous06/.android/build-cache/e00b77d87444c06ab6863c60d1354207991fc913/output/AndroidManifest.xml:24:5-28:19
MERGED from [com.paypal.sdk:paypal-android-sdk:2.15.3] /home/mobulous06/.android/build-cache/941d7565edb678cd89c4167b537e29c352c051f6/output/AndroidManifest.xml:12:5-26:19
MERGED from [io.card:android-sdk:5.5.0] /home/mobulous06/.android/build-cache/2382ff9c4c14ae6ce83682b40e884f5d23a60fbc/output/AndroidManifest.xml:19:5-24:19
	android:label
		ADDED from /home/mobulous06/Ravi Kant/Projects/TCS_Kisok29Oct18/solajetMobuloous-tcskiosk/app/src/main/AndroidManifest.xml:27:9-41
	android:supportsRtl
		ADDED from /home/mobulous06/Ravi Kant/Projects/TCS_Kisok29Oct18/solajetMobuloous-tcskiosk/app/src/main/AndroidManifest.xml:30:9-35
	android:roundIcon
		ADDED from /home/mobulous06/Ravi Kant/Projects/TCS_Kisok29Oct18/solajetMobuloous-tcskiosk/app/src/main/AndroidManifest.xml:29:9-50
	android:allowBackup
		ADDED from /home/mobulous06/Ravi Kant/Projects/TCS_Kisok29Oct18/solajetMobuloous-tcskiosk/app/src/main/AndroidManifest.xml:25:9-35
	android:icon
		ADDED from /home/mobulous06/Ravi Kant/Projects/TCS_Kisok29Oct18/solajetMobuloous-tcskiosk/app/src/main/AndroidManifest.xml:26:9-45
	android:largeHeap
		ADDED from /home/mobulous06/Ravi Kant/Projects/TCS_Kisok29Oct18/solajetMobuloous-tcskiosk/app/src/main/AndroidManifest.xml:28:9-33
	android:theme
		ADDED from /home/mobulous06/Ravi Kant/Projects/TCS_Kisok29Oct18/solajetMobuloous-tcskiosk/app/src/main/AndroidManifest.xml:31:9-40
activity#com.solajet.tcskiosk.activities.VideoHomeActivity
ADDED from /home/mobulous06/Ravi Kant/Projects/TCS_Kisok29Oct18/solajetMobuloous-tcskiosk/app/src/main/AndroidManifest.xml:34:9-42:20
	android:name
		ADDED from /home/mobulous06/Ravi Kant/Projects/TCS_Kisok29Oct18/solajetMobuloous-tcskiosk/app/src/main/AndroidManifest.xml:34:19-83
intent-filter#android.intent.action.MAIN+android.intent.category.LAUNCHER
ADDED from /home/mobulous06/Ravi Kant/Projects/TCS_Kisok29Oct18/solajetMobuloous-tcskiosk/app/src/main/AndroidManifest.xml:35:13-41:29
action#android.intent.action.MAIN
ADDED from /home/mobulous06/Ravi Kant/Projects/TCS_Kisok29Oct18/solajetMobuloous-tcskiosk/app/src/main/AndroidManifest.xml:36:17-69
	android:name
		ADDED from /home/mobulous06/Ravi Kant/Projects/TCS_Kisok29Oct18/solajetMobuloous-tcskiosk/app/src/main/AndroidManifest.xml:36:25-66
category#android.intent.category.LAUNCHER
ADDED from /home/mobulous06/Ravi Kant/Projects/TCS_Kisok29Oct18/solajetMobuloous-tcskiosk/app/src/main/AndroidManifest.xml:38:17-77
	android:name
		ADDED from /home/mobulous06/Ravi Kant/Projects/TCS_Kisok29Oct18/solajetMobuloous-tcskiosk/app/src/main/AndroidManifest.xml:38:27-74
activity#com.solajet.tcskiosk.activities.LoginActivity
ADDED from /home/mobulous06/Ravi Kant/Projects/TCS_Kisok29Oct18/solajetMobuloous-tcskiosk/app/src/main/AndroidManifest.xml:54:9-56:58
	android:windowSoftInputMode
		ADDED from /home/mobulous06/Ravi Kant/Projects/TCS_Kisok29Oct18/solajetMobuloous-tcskiosk/app/src/main/AndroidManifest.xml:56:13-55
	android:name
		ADDED from /home/mobulous06/Ravi Kant/Projects/TCS_Kisok29Oct18/solajetMobuloous-tcskiosk/app/src/main/AndroidManifest.xml:55:13-73
activity#com.solajet.tcskiosk.activities.SignUpActivity
ADDED from /home/mobulous06/Ravi Kant/Projects/TCS_Kisok29Oct18/solajetMobuloous-tcskiosk/app/src/main/AndroidManifest.xml:57:9-59:70
	android:windowSoftInputMode
		ADDED from /home/mobulous06/Ravi Kant/Projects/TCS_Kisok29Oct18/solajetMobuloous-tcskiosk/app/src/main/AndroidManifest.xml:59:13-67
	android:name
		ADDED from /home/mobulous06/Ravi Kant/Projects/TCS_Kisok29Oct18/solajetMobuloous-tcskiosk/app/src/main/AndroidManifest.xml:58:13-74
activity#com.solajet.tcskiosk.activities.HomeActivity
ADDED from /home/mobulous06/Ravi Kant/Projects/TCS_Kisok29Oct18/solajetMobuloous-tcskiosk/app/src/main/AndroidManifest.xml:60:9-62:70
	android:windowSoftInputMode
		ADDED from /home/mobulous06/Ravi Kant/Projects/TCS_Kisok29Oct18/solajetMobuloous-tcskiosk/app/src/main/AndroidManifest.xml:62:13-67
	android:name
		ADDED from /home/mobulous06/Ravi Kant/Projects/TCS_Kisok29Oct18/solajetMobuloous-tcskiosk/app/src/main/AndroidManifest.xml:61:13-72
activity#com.solajet.tcskiosk.activities.ForgotPasscodeActivity
ADDED from /home/mobulous06/Ravi Kant/Projects/TCS_Kisok29Oct18/solajetMobuloous-tcskiosk/app/src/main/AndroidManifest.xml:63:9-65:70
	android:windowSoftInputMode
		ADDED from /home/mobulous06/Ravi Kant/Projects/TCS_Kisok29Oct18/solajetMobuloous-tcskiosk/app/src/main/AndroidManifest.xml:65:13-67
	android:name
		ADDED from /home/mobulous06/Ravi Kant/Projects/TCS_Kisok29Oct18/solajetMobuloous-tcskiosk/app/src/main/AndroidManifest.xml:64:13-82
activity#com.solajet.tcskiosk.activities.AllPackageActivity
ADDED from /home/mobulous06/Ravi Kant/Projects/TCS_Kisok29Oct18/solajetMobuloous-tcskiosk/app/src/main/AndroidManifest.xml:66:9-87
	android:name
		ADDED from /home/mobulous06/Ravi Kant/Projects/TCS_Kisok29Oct18/solajetMobuloous-tcskiosk/app/src/main/AndroidManifest.xml:66:19-84
activity#com.solajet.tcskiosk.activities.Payment
ADDED from /home/mobulous06/Ravi Kant/Projects/TCS_Kisok29Oct18/solajetMobuloous-tcskiosk/app/src/main/AndroidManifest.xml:67:9-69:70
	android:windowSoftInputMode
		ADDED from /home/mobulous06/Ravi Kant/Projects/TCS_Kisok29Oct18/solajetMobuloous-tcskiosk/app/src/main/AndroidManifest.xml:69:13-67
	android:name
		ADDED from /home/mobulous06/Ravi Kant/Projects/TCS_Kisok29Oct18/solajetMobuloous-tcskiosk/app/src/main/AndroidManifest.xml:68:13-67
activity#com.solajet.tcskiosk.activities.UnderDevelopement
ADDED from /home/mobulous06/Ravi Kant/Projects/TCS_Kisok29Oct18/solajetMobuloous-tcskiosk/app/src/main/AndroidManifest.xml:70:9-86
	android:name
		ADDED from /home/mobulous06/Ravi Kant/Projects/TCS_Kisok29Oct18/solajetMobuloous-tcskiosk/app/src/main/AndroidManifest.xml:70:19-83
activity#com.solajet.tcskiosk.activities.ManagerLoginActivity
ADDED from /home/mobulous06/Ravi Kant/Projects/TCS_Kisok29Oct18/solajetMobuloous-tcskiosk/app/src/main/AndroidManifest.xml:71:9-73:70
	android:windowSoftInputMode
		ADDED from /home/mobulous06/Ravi Kant/Projects/TCS_Kisok29Oct18/solajetMobuloous-tcskiosk/app/src/main/AndroidManifest.xml:73:13-67
	android:name
		ADDED from /home/mobulous06/Ravi Kant/Projects/TCS_Kisok29Oct18/solajetMobuloous-tcskiosk/app/src/main/AndroidManifest.xml:72:13-80
activity#com.solajet.tcskiosk.activities.TermsAndCondition
ADDED from /home/mobulous06/Ravi Kant/Projects/TCS_Kisok29Oct18/solajetMobuloous-tcskiosk/app/src/main/AndroidManifest.xml:74:9-86
	android:name
		ADDED from /home/mobulous06/Ravi Kant/Projects/TCS_Kisok29Oct18/solajetMobuloous-tcskiosk/app/src/main/AndroidManifest.xml:74:19-83
activity#com.solajet.tcskiosk.activities.TutorialActivity
ADDED from /home/mobulous06/Ravi Kant/Projects/TCS_Kisok29Oct18/solajetMobuloous-tcskiosk/app/src/main/AndroidManifest.xml:75:9-85
	android:name
		ADDED from /home/mobulous06/Ravi Kant/Projects/TCS_Kisok29Oct18/solajetMobuloous-tcskiosk/app/src/main/AndroidManifest.xml:75:19-82
activity#com.solajet.tcskiosk.activities.PackageDetailsActivity
ADDED from /home/mobulous06/Ravi Kant/Projects/TCS_Kisok29Oct18/solajetMobuloous-tcskiosk/app/src/main/AndroidManifest.xml:76:9-91
	android:name
		ADDED from /home/mobulous06/Ravi Kant/Projects/TCS_Kisok29Oct18/solajetMobuloous-tcskiosk/app/src/main/AndroidManifest.xml:76:19-88
receiver#utils.BootBroadcastReceiver
ADDED from /home/mobulous06/Ravi Kant/Projects/TCS_Kisok29Oct18/solajetMobuloous-tcskiosk/app/src/main/AndroidManifest.xml:78:9-84:20
	android:name
		ADDED from /home/mobulous06/Ravi Kant/Projects/TCS_Kisok29Oct18/solajetMobuloous-tcskiosk/app/src/main/AndroidManifest.xml:78:19-61
intent-filter#android.intent.action.BOOT_COMPLETED+android.intent.category.LAUNCHER
ADDED from /home/mobulous06/Ravi Kant/Projects/TCS_Kisok29Oct18/solajetMobuloous-tcskiosk/app/src/main/AndroidManifest.xml:79:13-83:29
action#android.intent.action.BOOT_COMPLETED
ADDED from /home/mobulous06/Ravi Kant/Projects/TCS_Kisok29Oct18/solajetMobuloous-tcskiosk/app/src/main/AndroidManifest.xml:80:17-79
	android:name
		ADDED from /home/mobulous06/Ravi Kant/Projects/TCS_Kisok29Oct18/solajetMobuloous-tcskiosk/app/src/main/AndroidManifest.xml:80:25-76
receiver#utils.MyAdmin
ADDED from /home/mobulous06/Ravi Kant/Projects/TCS_Kisok29Oct18/solajetMobuloous-tcskiosk/app/src/main/AndroidManifest.xml:85:9-97:20
	android:label
		ADDED from /home/mobulous06/Ravi Kant/Projects/TCS_Kisok29Oct18/solajetMobuloous-tcskiosk/app/src/main/AndroidManifest.xml:88:13-56
	android:permission
		ADDED from /home/mobulous06/Ravi Kant/Projects/TCS_Kisok29Oct18/solajetMobuloous-tcskiosk/app/src/main/AndroidManifest.xml:89:13-70
	android:description
		ADDED from /home/mobulous06/Ravi Kant/Projects/TCS_Kisok29Oct18/solajetMobuloous-tcskiosk/app/src/main/AndroidManifest.xml:87:13-62
	android:name
		ADDED from /home/mobulous06/Ravi Kant/Projects/TCS_Kisok29Oct18/solajetMobuloous-tcskiosk/app/src/main/AndroidManifest.xml:86:13-41
meta-data#android.app.device_admin
ADDED from /home/mobulous06/Ravi Kant/Projects/TCS_Kisok29Oct18/solajetMobuloous-tcskiosk/app/src/main/AndroidManifest.xml:90:13-92:56
	android:resource
		ADDED from /home/mobulous06/Ravi Kant/Projects/TCS_Kisok29Oct18/solajetMobuloous-tcskiosk/app/src/main/AndroidManifest.xml:92:17-53
	android:name
		ADDED from /home/mobulous06/Ravi Kant/Projects/TCS_Kisok29Oct18/solajetMobuloous-tcskiosk/app/src/main/AndroidManifest.xml:91:17-56
intent-filter#android.app.action.DEVICE_ADMIN_ENABLED
ADDED from /home/mobulous06/Ravi Kant/Projects/TCS_Kisok29Oct18/solajetMobuloous-tcskiosk/app/src/main/AndroidManifest.xml:94:13-96:29
action#android.app.action.DEVICE_ADMIN_ENABLED
ADDED from /home/mobulous06/Ravi Kant/Projects/TCS_Kisok29Oct18/solajetMobuloous-tcskiosk/app/src/main/AndroidManifest.xml:95:17-82
	android:name
		ADDED from /home/mobulous06/Ravi Kant/Projects/TCS_Kisok29Oct18/solajetMobuloous-tcskiosk/app/src/main/AndroidManifest.xml:95:25-79
activity#com.solajet.tcskiosk.activities.PaymentStripe
ADDED from /home/mobulous06/Ravi Kant/Projects/TCS_Kisok29Oct18/solajetMobuloous-tcskiosk/app/src/main/AndroidManifest.xml:118:9-82
	android:name
		ADDED from /home/mobulous06/Ravi Kant/Projects/TCS_Kisok29Oct18/solajetMobuloous-tcskiosk/app/src/main/AndroidManifest.xml:118:19-79
activity#com.solajet.tcskiosk.activities.PaymentCardConnect
ADDED from /home/mobulous06/Ravi Kant/Projects/TCS_Kisok29Oct18/solajetMobuloous-tcskiosk/app/src/main/AndroidManifest.xml:119:9-121:70
	android:windowSoftInputMode
		ADDED from /home/mobulous06/Ravi Kant/Projects/TCS_Kisok29Oct18/solajetMobuloous-tcskiosk/app/src/main/AndroidManifest.xml:121:13-67
	android:name
		ADDED from /home/mobulous06/Ravi Kant/Projects/TCS_Kisok29Oct18/solajetMobuloous-tcskiosk/app/src/main/AndroidManifest.xml:120:13-78
activity#com.solajet.tcskiosk.activities.ScrollingSplashActivity
ADDED from /home/mobulous06/Ravi Kant/Projects/TCS_Kisok29Oct18/solajetMobuloous-tcskiosk/app/src/main/AndroidManifest.xml:122:9-92
	android:name
		ADDED from /home/mobulous06/Ravi Kant/Projects/TCS_Kisok29Oct18/solajetMobuloous-tcskiosk/app/src/main/AndroidManifest.xml:122:19-89
activity#com.solajet.tcskiosk.activities.AccountActivity
ADDED from /home/mobulous06/Ravi Kant/Projects/TCS_Kisok29Oct18/solajetMobuloous-tcskiosk/app/src/main/AndroidManifest.xml:123:9-84
	android:name
		ADDED from /home/mobulous06/Ravi Kant/Projects/TCS_Kisok29Oct18/solajetMobuloous-tcskiosk/app/src/main/AndroidManifest.xml:123:19-81
meta-data#android.support.VERSION
ADDED from [com.android.support:cardview-v7:26.1.0] /home/mobulous06/.android/build-cache/6fc4e01ae49d23662dcb825ee0d7c63d6165a7e3/output/AndroidManifest.xml:23:9-25:38
MERGED from [com.android.support:design:26.1.0] /home/mobulous06/.android/build-cache/95ec41ea0a505520583d63e77c32f38d675ca449/output/AndroidManifest.xml:26:9-28:38
MERGED from [com.android.support:recyclerview-v7:26.1.0] /home/mobulous06/.android/build-cache/60eee2a2dd5f2167b04da6cda8dd6d8bb583540c/output/AndroidManifest.xml:23:9-25:38
MERGED from [com.android.support:transition:26.1.0] /home/mobulous06/.android/build-cache/441eed217f33cf91a4963995686fc984af5ae632/output/AndroidManifest.xml:23:9-25:38
MERGED from [com.android.support:appcompat-v7:26.1.0] /home/mobulous06/.android/build-cache/41613d197db53b61d6a039f138925ac399cedb8b/output/AndroidManifest.xml:26:9-28:38
MERGED from [com.android.support:support-v4:26.1.0] /home/mobulous06/.android/build-cache/50dec26bc4bcb1c4339b84eea7b49bf12edc4023/output/AndroidManifest.xml:26:9-28:38
MERGED from [com.android.support:support-media-compat:26.1.0] /home/mobulous06/.android/build-cache/21a13ee6c0fe2ea0a2645231b1075c8d7a16c50c/output/AndroidManifest.xml:26:9-28:38
MERGED from [com.android.support:support-fragment:26.1.0] /home/mobulous06/.android/build-cache/76ebea1c0384a8a020736a5708e7015c298cde96/output/AndroidManifest.xml:26:9-28:38
MERGED from [com.android.support:support-core-utils:26.1.0] /home/mobulous06/.android/build-cache/760e335c58311fdce975e9ad34977101010584e9/output/AndroidManifest.xml:26:9-28:38
MERGED from [com.android.support:animated-vector-drawable:26.1.0] /home/mobulous06/.android/build-cache/42e447d6c067d27f15819c51d478efc4a51b28e4/output/AndroidManifest.xml:23:9-25:38
MERGED from [com.android.support:support-vector-drawable:26.1.0] /home/mobulous06/.android/build-cache/0ae68620d610fa8f9d703601388c635e49455216/output/AndroidManifest.xml:23:9-25:38
MERGED from [com.android.support:support-core-ui:26.1.0] /home/mobulous06/.android/build-cache/d078c409bab324de651ea22745e695ac0ed8fca4/output/AndroidManifest.xml:26:9-28:38
MERGED from [com.android.support:support-compat:26.1.0] /home/mobulous06/.android/build-cache/90295f4eee57aacaf5eb2bb27c953e876914c022/output/AndroidManifest.xml:26:9-28:38
	android:value
		ADDED from [com.android.support:cardview-v7:26.1.0] /home/mobulous06/.android/build-cache/6fc4e01ae49d23662dcb825ee0d7c63d6165a7e3/output/AndroidManifest.xml:25:13-35
	android:name
		ADDED from [com.android.support:cardview-v7:26.1.0] /home/mobulous06/.android/build-cache/6fc4e01ae49d23662dcb825ee0d7c63d6165a7e3/output/AndroidManifest.xml:24:13-51
meta-data#android.arch.lifecycle.VERSION
ADDED from [android.arch.lifecycle:runtime:1.0.0] /home/mobulous06/.android/build-cache/e00b77d87444c06ab6863c60d1354207991fc913/output/AndroidManifest.xml:25:9-27:47
	android:value
		ADDED from [android.arch.lifecycle:runtime:1.0.0] /home/mobulous06/.android/build-cache/e00b77d87444c06ab6863c60d1354207991fc913/output/AndroidManifest.xml:27:13-44
	android:name
		ADDED from [android.arch.lifecycle:runtime:1.0.0] /home/mobulous06/.android/build-cache/e00b77d87444c06ab6863c60d1354207991fc913/output/AndroidManifest.xml:26:13-58
activity#com.paypal.android.sdk.payments.PaymentActivity
ADDED from [com.paypal.sdk:paypal-android-sdk:2.15.3] /home/mobulous06/.android/build-cache/941d7565edb678cd89c4167b537e29c352c051f6/output/AndroidManifest.xml:13:9-84
	android:name
		ADDED from [com.paypal.sdk:paypal-android-sdk:2.15.3] /home/mobulous06/.android/build-cache/941d7565edb678cd89c4167b537e29c352c051f6/output/AndroidManifest.xml:13:19-81
activity#com.paypal.android.sdk.payments.PaymentMethodActivity
ADDED from [com.paypal.sdk:paypal-android-sdk:2.15.3] /home/mobulous06/.android/build-cache/941d7565edb678cd89c4167b537e29c352c051f6/output/AndroidManifest.xml:14:9-90
	android:name
		ADDED from [com.paypal.sdk:paypal-android-sdk:2.15.3] /home/mobulous06/.android/build-cache/941d7565edb678cd89c4167b537e29c352c051f6/output/AndroidManifest.xml:14:19-87
activity#com.paypal.android.sdk.payments.PaymentConfirmActivity
ADDED from [com.paypal.sdk:paypal-android-sdk:2.15.3] /home/mobulous06/.android/build-cache/941d7565edb678cd89c4167b537e29c352c051f6/output/AndroidManifest.xml:15:9-91
	android:name
		ADDED from [com.paypal.sdk:paypal-android-sdk:2.15.3] /home/mobulous06/.android/build-cache/941d7565edb678cd89c4167b537e29c352c051f6/output/AndroidManifest.xml:15:19-88
activity#com.paypal.android.sdk.payments.LoginActivity
ADDED from [com.paypal.sdk:paypal-android-sdk:2.15.3] /home/mobulous06/.android/build-cache/941d7565edb678cd89c4167b537e29c352c051f6/output/AndroidManifest.xml:16:9-82
	android:name
		ADDED from [com.paypal.sdk:paypal-android-sdk:2.15.3] /home/mobulous06/.android/build-cache/941d7565edb678cd89c4167b537e29c352c051f6/output/AndroidManifest.xml:16:19-79
activity#com.paypal.android.sdk.payments.PayPalFuturePaymentActivity
ADDED from [com.paypal.sdk:paypal-android-sdk:2.15.3] /home/mobulous06/.android/build-cache/941d7565edb678cd89c4167b537e29c352c051f6/output/AndroidManifest.xml:17:9-96
	android:name
		ADDED from [com.paypal.sdk:paypal-android-sdk:2.15.3] /home/mobulous06/.android/build-cache/941d7565edb678cd89c4167b537e29c352c051f6/output/AndroidManifest.xml:17:19-93
activity#com.paypal.android.sdk.payments.FuturePaymentConsentActivity
ADDED from [com.paypal.sdk:paypal-android-sdk:2.15.3] /home/mobulous06/.android/build-cache/941d7565edb678cd89c4167b537e29c352c051f6/output/AndroidManifest.xml:18:9-97
	android:name
		ADDED from [com.paypal.sdk:paypal-android-sdk:2.15.3] /home/mobulous06/.android/build-cache/941d7565edb678cd89c4167b537e29c352c051f6/output/AndroidManifest.xml:18:19-94
activity#com.paypal.android.sdk.payments.FuturePaymentInfoActivity
ADDED from [com.paypal.sdk:paypal-android-sdk:2.15.3] /home/mobulous06/.android/build-cache/941d7565edb678cd89c4167b537e29c352c051f6/output/AndroidManifest.xml:19:9-94
	android:name
		ADDED from [com.paypal.sdk:paypal-android-sdk:2.15.3] /home/mobulous06/.android/build-cache/941d7565edb678cd89c4167b537e29c352c051f6/output/AndroidManifest.xml:19:19-91
activity#com.paypal.android.sdk.payments.PayPalProfileSharingActivity
ADDED from [com.paypal.sdk:paypal-android-sdk:2.15.3] /home/mobulous06/.android/build-cache/941d7565edb678cd89c4167b537e29c352c051f6/output/AndroidManifest.xml:20:9-97
	android:name
		ADDED from [com.paypal.sdk:paypal-android-sdk:2.15.3] /home/mobulous06/.android/build-cache/941d7565edb678cd89c4167b537e29c352c051f6/output/AndroidManifest.xml:20:19-94
activity#com.paypal.android.sdk.payments.ProfileSharingConsentActivity
ADDED from [com.paypal.sdk:paypal-android-sdk:2.15.3] /home/mobulous06/.android/build-cache/941d7565edb678cd89c4167b537e29c352c051f6/output/AndroidManifest.xml:21:9-98
	android:name
		ADDED from [com.paypal.sdk:paypal-android-sdk:2.15.3] /home/mobulous06/.android/build-cache/941d7565edb678cd89c4167b537e29c352c051f6/output/AndroidManifest.xml:21:19-95
service#com.paypal.android.sdk.payments.PayPalService
ADDED from [com.paypal.sdk:paypal-android-sdk:2.15.3] /home/mobulous06/.android/build-cache/941d7565edb678cd89c4167b537e29c352c051f6/output/AndroidManifest.xml:23:9-25:40
	android:exported
		ADDED from [com.paypal.sdk:paypal-android-sdk:2.15.3] /home/mobulous06/.android/build-cache/941d7565edb678cd89c4167b537e29c352c051f6/output/AndroidManifest.xml:25:13-37
	android:name
		ADDED from [com.paypal.sdk:paypal-android-sdk:2.15.3] /home/mobulous06/.android/build-cache/941d7565edb678cd89c4167b537e29c352c051f6/output/AndroidManifest.xml:24:13-73
uses-permission#android.permission.CAMERA
ADDED from [io.card:android-sdk:5.5.0] /home/mobulous06/.android/build-cache/2382ff9c4c14ae6ce83682b40e884f5d23a60fbc/output/AndroidManifest.xml:9:5-65
	android:name
		ADDED from [io.card:android-sdk:5.5.0] /home/mobulous06/.android/build-cache/2382ff9c4c14ae6ce83682b40e884f5d23a60fbc/output/AndroidManifest.xml:9:22-62
uses-permission#android.permission.VIBRATE
ADDED from [io.card:android-sdk:5.5.0] /home/mobulous06/.android/build-cache/2382ff9c4c14ae6ce83682b40e884f5d23a60fbc/output/AndroidManifest.xml:10:5-66
	android:name
		ADDED from [io.card:android-sdk:5.5.0] /home/mobulous06/.android/build-cache/2382ff9c4c14ae6ce83682b40e884f5d23a60fbc/output/AndroidManifest.xml:10:22-63
uses-feature#android.hardware.camera
ADDED from [io.card:android-sdk:5.5.0] /home/mobulous06/.android/build-cache/2382ff9c4c14ae6ce83682b40e884f5d23a60fbc/output/AndroidManifest.xml:12:5-14:36
	android:required
		ADDED from [io.card:android-sdk:5.5.0] /home/mobulous06/.android/build-cache/2382ff9c4c14ae6ce83682b40e884f5d23a60fbc/output/AndroidManifest.xml:14:9-33
	android:name
		ADDED from [io.card:android-sdk:5.5.0] /home/mobulous06/.android/build-cache/2382ff9c4c14ae6ce83682b40e884f5d23a60fbc/output/AndroidManifest.xml:13:9-47
uses-feature#android.hardware.camera.autofocus
ADDED from [io.card:android-sdk:5.5.0] /home/mobulous06/.android/build-cache/2382ff9c4c14ae6ce83682b40e884f5d23a60fbc/output/AndroidManifest.xml:15:5-17:36
	android:required
		ADDED from [io.card:android-sdk:5.5.0] /home/mobulous06/.android/build-cache/2382ff9c4c14ae6ce83682b40e884f5d23a60fbc/output/AndroidManifest.xml:17:9-33
	android:name
		ADDED from [io.card:android-sdk:5.5.0] /home/mobulous06/.android/build-cache/2382ff9c4c14ae6ce83682b40e884f5d23a60fbc/output/AndroidManifest.xml:16:9-57
activity#io.card.payment.CardIOActivity
ADDED from [io.card:android-sdk:5.5.0] /home/mobulous06/.android/build-cache/2382ff9c4c14ae6ce83682b40e884f5d23a60fbc/output/AndroidManifest.xml:20:9-22:66
	android:configChanges
		ADDED from [io.card:android-sdk:5.5.0] /home/mobulous06/.android/build-cache/2382ff9c4c14ae6ce83682b40e884f5d23a60fbc/output/AndroidManifest.xml:22:13-63
	android:name
		ADDED from [io.card:android-sdk:5.5.0] /home/mobulous06/.android/build-cache/2382ff9c4c14ae6ce83682b40e884f5d23a60fbc/output/AndroidManifest.xml:21:13-58
activity#io.card.payment.DataEntryActivity
ADDED from [io.card:android-sdk:5.5.0] /home/mobulous06/.android/build-cache/2382ff9c4c14ae6ce83682b40e884f5d23a60fbc/output/AndroidManifest.xml:23:9-70
	android:name
		ADDED from [io.card:android-sdk:5.5.0] /home/mobulous06/.android/build-cache/2382ff9c4c14ae6ce83682b40e884f5d23a60fbc/output/AndroidManifest.xml:23:19-67
